kegiatan,bulan,jumlah_tagihan
Listrik Rumah Dinas ( PLN ),01,29237316
Telkom,01,23552166
LinkNet Gedung TV,01,11000000
LinkNet Gedung Internet,01,24000000
Linknet Rumah Dinas,01,3109700
PAM ,01,8482569
Listrik Rumah Dinas ( PLN ),02,26879399
Telkom,02,21463353
LinkNet Gedung TV,02,11000000
LinkNet Gedung Internet,02,24000000
Linknet Rumah Dinas,02,3109700
PAM ,02,10789800
Listrik Rumah Dinas ( PLN ),03,22412305
Telkom,03,21750885
LinkNet Gedung TV,03,11000000
LinkNet Gedung Internet,03,24000000
Linknet Rumah Dinas,03,3109700
PAM ,03,12108569
Listrik Rumah Dinas ( PLN ),04,27611025
Telkom,04,23795452
LinkNet Gedung TV,04,11000000
LinkNet Gedung Internet,04,24000000
Linknet Rumah Dinas,04,3109700
PAM ,04,10471969
Listrik Rumah Dinas ( PLN ),05,28366057
Telkom,05,20096446
LinkNet Gedung TV,05,11000000
LinkNet Gedung Internet,05,24000000
Linknet Rumah Dinas,05,3109700
PAM ,05,13225769
Listrik Rumah Dinas ( PLN ),06,27818908
Telkom,06,21596618
LinkNet Gedung TV,06,11000000
LinkNet Gedung Internet,06,24000000
Linknet Rumah Dinas,06,3109700
PAM ,06,13179767
Listrik Rumah Dinas ( PLN ),07,28870920
Telkom,07,18560434
LinkNet Gedung TV,07,11000000
LinkNet Gedung Internet,07,24000000
Linknet Rumah Dinas,07,3109700
PAM ,07,10935569
Listrik Rumah Dinas ( PLN ),08,26731390
Telkom,08,21204683
LinkNet Gedung TV,08,11000000
LinkNet Gedung Internet,08,24000000
Linknet Rumah Dinas,08,3109700
PAM ,08,14287169
Listrik Rumah Dinas ( PLN ),09,24284554
Telkom,09,21204684
LinkNet Gedung TV,09,11000000
LinkNet Gedung Internet,09,24000000
Linknet Rumah Dinas,09,3109700
PAM ,09,14718369
Listrik Rumah Dinas ( PLN ),10,23509184
Telkom,10,18576094
LinkNet Gedung TV,10,11000000
LinkNet Gedung Internet,10,24000000
Linknet Rumah Dinas,10,3109700
PAM ,10,13473769
Listrik Rumah Dinas ( PLN ),11,24431106
Telkom,11,18576094
LinkNet Gedung TV,11,11000000
LinkNet Gedung Internet,11,24000000
Linknet Rumah Dinas,11,3109700
PAM ,11,17570169
Listrik Rumah Dinas ( PLN ),12,23608930
Telkom,12,38307460
LinkNet Gedung TV,12,11000000
LinkNet Gedung Internet,12,24000000
Linknet Rumah Dinas,12,3109700
PAM ,12,15551369
